{
    "/client/js/app.js": "/client/js/app.js?id=852f1cc87024c0a095a7",
    "/client/js/vendor.js": "/client/js/vendor.js?id=deb480ec680569bf2b1e",
    "/js/app.js": "/js/app.js?id=43fa89a87739703b2264",
    "/css/app.css": "/css/app.css?id=4151cf6261b95f07227e",
    "/client/css/app.css": "/client/css/app.css?id=cd2e367b9d69521eaae0",
    "/client/js/manifest.js": "/client/js/manifest.js?id=7c0a19fb1a3afbe0a6cb"
}